mini project/up_down_counter.vcd
$date
	Sat Nov 18 18:26:37 2023
$end
$version
	Icarus Verilog
$end
$timescale
	1ps
$end
$scope module testbench $end
$var wire 3 ! count [2:0] $end
$var reg 1 " clk $end
$var reg 1 # rst $end
$var reg 1 $ up_down $end
$scope module dut $end
$var wire 1 % clk $end
$var wire 1 & rst $end
$var wire 1 ' up_down $end
$var reg 3 ( count [2:0] $end
$var reg 3 ) next_count [2:0] $end
$upscope $end
$upscope $end
$enddefinitions $end
#0
$dumpvars
b0 )
bx (
1'
1&
0%
1$
1#
0"
bx !
$end
#5000
b0 (
b0 !
1"
1%
#10000
b1 )
0"
0%
0#
0&
#15000
b10 )
b1 (
b1 !
1"
1%
#20000
0"
0%
#25000
b11 )
b10 (
b10 !
1"
1%
#30000
0"
0%
#35000
b100 )
b11 (
b11 !
1"
1%
#40000
0"
0%
#45000
b101 )
b100 (
b100 !
1"
1%
#50000
0"
0%
#55000
b110 )
b101 (
b101 !
1"
1%
#60000
0"
0%
#65000
b111 )
b110 (
b110 !
1"
1%
#70000
0"
0%
#75000
b0 )
b111 (
b111 !
1"
1%
#80000
0"
0%
#85000
b1 )
b0 (
b0 !
1"
1%
#90000
0"
0%
#95000
b10 )
b1 (
b1 !
1"
1%
#100000
0"
0%
#105000
b11 )
b10 (
b10 !
1"
1%
#110000
0"
0%
#115000
b100 )
b11 (
b11 !
1"
1%
#120000
0"
0%
#125000
b101 )
b100 (
b100 !
1"
1%
#130000
0"
0%
#135000
b110 )
b101 (
b101 !
1"
1%
#140000
0"
0%
#145000
b111 )
b110 (
b110 !
1"
1%
#150000
0"
0%
#155000
b0 )
b111 (
b111 !
1"
1%
#160000
0"
0%
#165000
b1 )
b0 (
b0 !
1"
1%
#170000
0"
0%
#175000
b10 )
b1 (
b1 !
1"
1%
#180000
b0 )
0"
0%
0$
0'
#185000
b111 )
b0 (
b0 !
1"
1%
#190000
0"
0%
#195000
b110 )
b111 (
b111 !
1"
1%
#200000
0"
0%
#205000
b101 )
b110 (
b110 !
1"
1%
#210000
0"
0%
#215000
b100 )
b101 (
b101 !
1"
1%
#220000
0"
0%
#225000
b11 )
b100 (
b100 !
1"
1%
#230000
0"
0%
#235000
b10 )
b11 (
b11 !
1"
1%
#240000
0"
0%
#245000
b1 )
b10 (
b10 !
1"
1%
#250000
0"
0%
#255000
b0 )
b1 (
b1 !
1"
1%
#260000
0"
0%
#265000
b111 )
b0 (
b0 !
1"
1%
#270000
0"
0%
#275000
b110 )
b111 (
b111 !
1"
1%
#280000
0"
0%
#285000
b101 )
b110 (
b110 !
1"
1%
#290000
0"
0%
#295000
b100 )
b101 (
b101 !
1"
1%
#300000
0"
0%
#305000
b11 )
b100 (
b100 !
1"
1%
#310000
0"
0%
#315000
b10 )
b11 (
b11 !
1"
1%
#320000
0"
0%
#325000
b1 )
b10 (
b10 !
1"
1%
#330000
0"
0%
#335000
b0 )
b1 (
b1 !
1"
1%
#340000
0"
0%
#345000
b111 )
b0 (
b0 !
1"
1%
