assignment 3/2isto1 MUX/MUX2isto1_test.vcd
$date
	Fri Sep 01 23:48:37 2023
$end
$version
	Icarus Verilog
$end
$timescale
	1s
$end
$scope module testbench $end
$var wire 1 ! X $end
$var reg 1 " A $end
$var reg 1 # B $end
$var reg 1 $ S $end
$scope module newMUX $end
$var wire 1 % a $end
$var wire 1 & b $end
$var wire 1 ! o $end
$var wire 1 ' x $end
$upscope $end
$upscope $end
$enddefinitions $end
#0
$dumpvars
0'
0&
0%
0$
0#
0"
0!
$end
#5
1#
1&
#10
1!
0#
0&
1"
1%
#15
1#
1&
#20
0!
0#
0&
0"
0%
1$
1'
#25
1!
1#
1&
#30
0!
0#
0&
1"
1%
#35
1!
1#
1&
